...................
----------------------------------------------------------------------
Ran 19 tests in 31.217s

OK
Name             Stmts   Miss Branch BrPart  Cover   Missing
------------------------------------------------------------
Collatz.py          30      0     14      0   100%
TestCollatz.py      83      0      0      0   100%
------------------------------------------------------------
TOTAL              113      0     14      0   100%
